2021_PAO2_1P_Examen/simulation/qsim/Examen.msim.vcd
$comment
	File created using the following command:
		vcd file Examen.msim.vcd -direction
$end
$date
	Thu Dec 02 10:18:56 2021
$end
$version
	ModelSim Version 10.5b
$end
$timescale
	1ps
$end

$scope module structural_vhd_vec_tst $end
$var wire 1 ! clk $end
$var wire 1 " Datos [7] $end
$var wire 1 # Datos [6] $end
$var wire 1 $ Datos [5] $end
$var wire 1 % Datos [4] $end
$var wire 1 & Datos [3] $end
$var wire 1 ' Datos [2] $end
$var wire 1 ( Datos [1] $end
$var wire 1 ) Datos [0] $end
$var wire 1 * Done $end
$var wire 1 + Find $end
$var wire 1 , Load $end
$var wire 1 - Qmax [7] $end
$var wire 1 . Qmax [6] $end
$var wire 1 / Qmax [5] $end
$var wire 1 0 Qmax [4] $end
$var wire 1 1 Qmax [3] $end
$var wire 1 2 Qmax [2] $end
$var wire 1 3 Qmax [1] $end
$var wire 1 4 Qmax [0] $end
$var wire 1 5 Qmin [7] $end
$var wire 1 6 Qmin [6] $end
$var wire 1 7 Qmin [5] $end
$var wire 1 8 Qmin [4] $end
$var wire 1 9 Qmin [3] $end
$var wire 1 : Qmin [2] $end
$var wire 1 ; Qmin [1] $end
$var wire 1 < Qmin [0] $end
$var wire 1 = resetn $end
$var wire 1 > Start $end

$scope module i1 $end
$var wire 1 ? gnd $end
$var wire 1 @ vcc $end
$var wire 1 A unknown $end
$var wire 1 B devoe $end
$var wire 1 C devclrn $end
$var wire 1 D devpor $end
$var wire 1 E ww_devoe $end
$var wire 1 F ww_devclrn $end
$var wire 1 G ww_devpor $end
$var wire 1 H ww_resetn $end
$var wire 1 I ww_Start $end
$var wire 1 J ww_Load $end
$var wire 1 K ww_Find $end
$var wire 1 L ww_clk $end
$var wire 1 M ww_Datos [7] $end
$var wire 1 N ww_Datos [6] $end
$var wire 1 O ww_Datos [5] $end
$var wire 1 P ww_Datos [4] $end
$var wire 1 Q ww_Datos [3] $end
$var wire 1 R ww_Datos [2] $end
$var wire 1 S ww_Datos [1] $end
$var wire 1 T ww_Datos [0] $end
$var wire 1 U ww_Done $end
$var wire 1 V ww_Qmax [7] $end
$var wire 1 W ww_Qmax [6] $end
$var wire 1 X ww_Qmax [5] $end
$var wire 1 Y ww_Qmax [4] $end
$var wire 1 Z ww_Qmax [3] $end
$var wire 1 [ ww_Qmax [2] $end
$var wire 1 \ ww_Qmax [1] $end
$var wire 1 ] ww_Qmax [0] $end
$var wire 1 ^ ww_Qmin [7] $end
$var wire 1 _ ww_Qmin [6] $end
$var wire 1 ` ww_Qmin [5] $end
$var wire 1 a ww_Qmin [4] $end
$var wire 1 b ww_Qmin [3] $end
$var wire 1 c ww_Qmin [2] $end
$var wire 1 d ww_Qmin [1] $end
$var wire 1 e ww_Qmin [0] $end
$var wire 1 f \Datos[0]~input_o\ $end
$var wire 1 g \Datos[1]~input_o\ $end
$var wire 1 h \Datos[2]~input_o\ $end
$var wire 1 i \Datos[3]~input_o\ $end
$var wire 1 j \Datos[4]~input_o\ $end
$var wire 1 k \Datos[5]~input_o\ $end
$var wire 1 l \Datos[6]~input_o\ $end
$var wire 1 m \Datos[7]~input_o\ $end
$var wire 1 n \~QUARTUS_CREATED_GND~I_combout\ $end
$var wire 1 o \clk~input_o\ $end
$var wire 1 p \clk~inputCLKENA0_outclk\ $end
$var wire 1 q \Start~input_o\ $end
$var wire 1 r \Find~input_o\ $end
$var wire 1 s \Load~input_o\ $end
$var wire 1 t \Controller|Selector0~0_combout\ $end
$var wire 1 u \resetn~input_o\ $end
$var wire 1 v \Controller|y.s0~q\ $end
$var wire 1 w \Controller|y~29_combout\ $end
$var wire 1 x \Controller|y.s1~q\ $end
$var wire 1 y \Controller|Selector1~0_combout\ $end
$var wire 1 z \Controller|y.s2~q\ $end
$var wire 1 { \Controller|y~28_combout\ $end
$var wire 1 | \Controller|y.s3~q\ $end
$var wire 1 } \Controller|Selector2~0_combout\ $end
$var wire 1 ~ \Controller|y.s4~q\ $end
$var wire 1 !! \Controller|y~27_combout\ $end
$var wire 1 "! \Controller|y.s5~q\ $end
$var wire 1 #! \Controller|Selector3~0_combout\ $end
$var wire 1 $! \Controller|y.s6~q\ $end
$var wire 1 %! \Controller|y~26_combout\ $end
$var wire 1 &! \Controller|y.s7~q\ $end
$var wire 1 '! \Controller|Selector4~0_combout\ $end
$var wire 1 (! \Controller|y.s8~q\ $end
$var wire 1 )! \Controller|y~25_combout\ $end
$var wire 1 *! \Controller|y.s9~q\ $end
$var wire 1 +! \Controller|Selector5~0_combout\ $end
$var wire 1 ,! \Controller|y.s10~q\ $end
$var wire 1 -! \Controller|y~24_combout\ $end
$var wire 1 .! \Controller|y.s11~q\ $end
$var wire 1 /! \Controller|y~23_combout\ $end
$var wire 1 0! \Controller|y.s12~q\ $end
$var wire 1 1! \Controller|y.s13~q\ $end
$var wire 1 2! \Controller|y.s14~q\ $end
$var wire 1 3! \Controller|Selector6~0_combout\ $end
$var wire 1 4! \Controller|y.s15~q\ $end
$var wire 1 5! \Controller|y~22_combout\ $end
$var wire 1 6! \Controller|y.s16~q\ $end
$var wire 1 7! \Controller|Done~combout\ $end
$var wire 1 8! \ALT_INV_Load~input_o\ $end
$var wire 1 9! \ALT_INV_Find~input_o\ $end
$var wire 1 :! \ALT_INV_Start~input_o\ $end
$var wire 1 ;! \Controller|ALT_INV_y.s0~q\ $end
$var wire 1 <! \Controller|ALT_INV_y.s1~q\ $end
$var wire 1 =! \Controller|ALT_INV_y.s2~q\ $end
$var wire 1 >! \Controller|ALT_INV_y.s3~q\ $end
$var wire 1 ?! \Controller|ALT_INV_y.s4~q\ $end
$var wire 1 @! \Controller|ALT_INV_y.s5~q\ $end
$var wire 1 A! \Controller|ALT_INV_y.s6~q\ $end
$var wire 1 B! \Controller|ALT_INV_y.s7~q\ $end
$var wire 1 C! \Controller|ALT_INV_y.s8~q\ $end
$var wire 1 D! \Controller|ALT_INV_y.s9~q\ $end
$var wire 1 E! \Controller|ALT_INV_y.s10~q\ $end
$var wire 1 F! \Controller|ALT_INV_y.s11~q\ $end
$var wire 1 G! \Controller|ALT_INV_y.s14~q\ $end
$var wire 1 H! \Controller|ALT_INV_y.s16~q\ $end
$var wire 1 I! \Controller|ALT_INV_y.s15~q\ $end
$upscope $end
$upscope $end
$enddefinitions $end
#0
$dumpvars
0!
0*
0+
0,
0=
0>
0?
1@
xA
1B
1C
1D
1E
1F
1G
0H
0I
0J
0K
0L
0U
1f
1g
0h
1i
0j
1k
1l
0m
xn
0o
0p
0q
0r
0s
0t
0u
0v
1w
0x
1y
0z
0{
0|
0}
0~
0!!
0"!
0#!
0$!
0%!
0&!
0'!
0(!
0)!
0*!
0+!
0,!
0-!
0.!
0/!
00!
01!
02!
03!
04!
05!
06!
07!
18!
19!
1:!
1;!
1<!
1=!
1>!
1?!
1@!
1A!
1B!
1C!
1D!
1E!
1F!
1G!
1H!
1I!
0"
1#
1$
0%
1&
0'
1(
1)
0-
0.
0/
00
01
02
03
04
05
06
07
08
09
0:
0;
0<
0M
1N
1O
0P
1Q
0R
1S
1T
0V
0W
0X
0Y
0Z
0[
0\
0]
0^
0_
0`
0a
0b
0c
0d
0e
$end
#5000
1!
1L
1o
1p
#10000
0!
0L
0o
0p
#15000
1!
1L
1o
1p
#20000
0!
0L
0o
0p
#25000
1!
0#
0$
1%
0&
1'
0(
1L
0S
1R
0Q
1P
0O
0N
0l
0k
1j
0i
1h
0g
1o
1p
#30000
0!
1=
0L
1H
1u
0o
0p
#35000
1!
1L
1o
1p
1x
1z
0=!
0<!
#40000
0!
1>
0L
1I
1q
0o
0p
0:!
0y
1{
#45000
1!
1L
1o
1p
0z
1|
0>!
1=!
#50000
0!
1$
1(
1"
0)
0L
0T
1S
1O
1M
1m
1k
1g
0f
0o
0p
#55000
1!
1L
1o
1p
#60000
0!
0>
0L
0I
0q
0o
0p
1:!
0{
1}
#65000
1!
1L
1o
1p
0|
1~
0?!
1>!
#70000
0!
0L
0o
0p
#75000
1!
0$
0(
0"
1#
0%
1&
1L
0S
1Q
0P
0O
1N
0M
0m
1l
0k
0j
1i
0g
1o
1p
#80000
0!
1>
0L
1I
1q
0o
0p
0:!
#85000
1!
1L
1o
1p
#90000
0!
0L
0o
0p
#95000
1!
1L
1o
1p
#100000
0!
0>
1(
1"
0&
1)
0L
0I
1T
1S
0Q
1M
1m
0i
1g
1f
0q
0o
0p
1:!
#105000
1!
1L
1o
1p
#110000
0!
0L
0o
0p
#115000
1!
1L
1o
1p
#120000
0!
0L
0o
0p
#125000
1!
0)
1$
1L
0T
1O
1k
0f
1o
1p
#130000
0!
0L
0o
0p
#135000
1!
1L
1o
1p
#140000
0!
1,
0L
1J
1s
0o
0p
08!
0}
1!!
#145000
1!
1L
1o
1p
0~
1"!
0@!
1?!
#150000
0!
1)
0$
0"
1&
1%
0'
0L
1T
0R
1Q
1P
0O
0M
0m
0k
1j
1i
0h
1f
0o
0p
#155000
1!
1L
1o
1p
#160000
0!
0,
0L
0J
0s
0o
0p
18!
0!!
1#!
#165000
1!
1L
1o
1p
0"!
1$!
0A!
1@!
#170000
0!
0L
0o
0p
#175000
1!
0)
1$
1"
0%
0(
0#
1L
0T
0S
0P
1O
0N
1M
1m
0l
1k
0j
0g
0f
1o
1p
#180000
0!
0L
0o
0p
#185000
1!
1L
1o
1p
#190000
0!
1,
0L
1J
1s
0o
0p
08!
0#!
1%!
#195000
1!
1L
1o
1p
0$!
1&!
0B!
1A!
#200000
0!
0"
1(
1#
0L
1S
1N
0M
0m
1l
1g
0o
0p
#205000
1!
1L
1o
1p
#210000
0!
0,
0L
0J
0s
0o
0p
18!
0%!
1'!
#215000
1!
1L
1o
1p
0&!
1(!
0C!
1B!
#220000
0!
0L
0o
0p
#225000
1!
1"
0(
0$
1%
1L
0S
1P
0O
1M
1m
0k
1j
0g
1o
1p
#230000
0!
0L
0o
0p
#235000
1!
1L
1o
1p
#240000
0!
1,
0L
1J
1s
0o
0p
08!
0'!
1)!
#245000
1!
1L
1o
1p
0(!
1*!
0D!
1C!
#250000
0!
0"
1$
1'
0L
1R
1O
0M
0m
1k
1h
0o
0p
#255000
1!
1L
1o
1p
#260000
0!
0,
0L
0J
0s
0o
0p
18!
0)!
1+!
#265000
1!
1L
1o
1p
0*!
1,!
0E!
1D!
#270000
0!
0L
0o
0p
#275000
1!
1"
0$
0#
1)
1L
1T
0O
0N
1M
1m
0l
0k
1f
1o
1p
#280000
0!
0L
0o
0p
#285000
1!
1L
1o
1p
#290000
0!
1+
0L
1K
1r
0o
0p
09!
0+!
1-!
#295000
1!
1L
1o
1p
0,!
1.!
0F!
1E!
#300000
0!
1$
1#
0'
0%
0&
0L
0R
0Q
0P
1O
1N
1l
1k
0j
0i
0h
0o
0p
#305000
1!
1L
1o
1p
#310000
0!
0+
0L
0K
0r
0o
0p
19!
0-!
1/!
#315000
1!
1L
1o
1p
0.!
10!
1F!
0/!
#320000
0!
0L
0o
0p
#325000
1!
1'
1&
1(
1L
1S
1R
1Q
1i
1h
1g
1o
1p
00!
11!
#330000
0!
0L
0o
0p
#335000
1!
1L
1o
1p
01!
12!
0G!
13!
#340000
0!
1>
0L
1I
1q
0o
0p
0:!
#345000
1!
1L
1o
1p
02!
14!
0I!
1G!
03!
15!
17!
1U
1*
#350000
0!
0$
1%
0)
0L
0T
1P
0O
0k
1j
0f
0o
0p
#355000
1!
1L
1o
1p
04!
16!
0H!
1I!
#360000
0!
0>
0L
0I
0q
0o
0p
1:!
1t
05!
#365000
1!
1L
1o
1p
1v
06!
1H!
0;!
07!
0U
0*
#370000
0!
0L
0o
0p
#375000
1!
1$
0%
1)
0'
0(
0#
0"
1L
1T
0S
0R
0P
1O
0N
0M
0m
0l
1k
0j
0h
0g
1f
1o
1p
#380000
0!
0L
0o
0p
#385000
1!
1L
1o
1p
#390000
0!
0L
0o
0p
#395000
1!
1L
1o
1p
#400000
0!
0$
1%
0)
1(
1"
0&
0L
0T
1S
0Q
1P
0O
1M
1m
0k
1j
0i
1g
0f
0o
0p
#405000
1!
1L
1o
1p
#410000
0!
0L
0o
0p
#415000
1!
1L
1o
1p
#420000
0!
0L
0o
0p
#425000
1!
0%
0(
1&
1L
0S
1Q
0P
0j
1i
0g
1o
1p
#430000
0!
0L
0o
0p
#435000
1!
1L
1o
1p
#440000
0!
0L
0o
0p
#445000
1!
1L
1o
1p
#450000
0!
1(
1$
1)
0"
1#
0L
1T
1S
1O
1N
0M
0m
1l
1k
1g
1f
0o
0p
#455000
1!
1L
1o
1p
#460000
0!
0L
0o
0p
#465000
1!
1L
1o
1p
#470000
0!
0L
0o
0p
#475000
1!
0)
0#
1%
0&
1L
0T
0Q
1P
0N
0l
1j
0i
0f
1o
1p
#480000
0!
0L
0o
0p
#485000
1!
1L
1o
1p
#490000
0!
0L
0o
0p
#495000
1!
1L
1o
1p
#500000
0!
1)
0%
0(
0$
1"
0L
1T
0S
0P
0O
1M
1m
0k
0j
0g
1f
0o
0p
#505000
1!
1L
1o
1p
#510000
0!
0L
0o
0p
#515000
1!
1L
1o
1p
#520000
0!
0L
0o
0p
#525000
1!
1%
1(
0"
1#
1&
1L
1S
1Q
1P
1N
0M
0m
1l
1j
1i
1g
1o
1p
#530000
0!
0L
0o
0p
#535000
1!
1L
1o
1p
#540000
0!
0L
0o
0p
#545000
1!
1L
1o
1p
#550000
0!
0%
0(
0&
1'
0L
0S
1R
0Q
0P
0j
0i
1h
0g
0o
0p
#555000
1!
1L
1o
1p
#560000
0!
0L
0o
0p
#565000
1!
1L
1o
1p
#570000
0!
0L
0o
0p
#575000
1!
1"
1L
1M
1m
1o
1p
#580000
0!
0L
0o
0p
#585000
1!
1L
1o
1p
#590000
0!
0L
0o
0p
#595000
1!
1L
1o
1p
#600000
0!
1&
0#
0L
1Q
0N
0l
1i
0o
0p
#605000
1!
1L
1o
1p
#610000
0!
0L
0o
0p
#615000
1!
1L
1o
1p
#620000
0!
0L
0o
0p
#625000
1!
1#
0"
1%
1(
0'
0)
1L
0T
1S
0R
1P
1N
0M
0m
1l
1j
0h
1g
0f
1o
1p
#630000
0!
0L
0o
0p
#635000
1!
1L
1o
1p
#640000
0!
0L
0o
0p
#645000
1!
1L
1o
1p
#650000
0!
1"
0(
1)
0&
1$
0L
1T
0S
0Q
1O
1M
1m
1k
0i
0g
1f
0o
0p
#655000
1!
1L
1o
1p
#660000
0!
0L
0o
0p
#665000
1!
1L
1o
1p
#670000
0!
0L
0o
0p
#675000
1!
1(
1&
0$
1'
1L
1S
1R
1Q
0O
0k
1i
1h
1g
1o
1p
#680000
0!
0L
0o
0p
#685000
1!
1L
1o
1p
#690000
0!
0L
0o
0p
#695000
1!
1L
1o
1p
#700000
0!
0"
0)
0%
0L
0T
0P
0M
0m
0j
0f
0o
0p
#705000
1!
1L
1o
1p
#710000
0!
0L
0o
0p
#715000
1!
1L
1o
1p
#720000
0!
0L
0o
0p
#725000
1!
1%
0&
0'
1L
0R
0Q
1P
1j
0i
0h
1o
1p
#730000
0!
0L
0o
0p
#735000
1!
1L
1o
1p
#740000
0!
0L
0o
0p
#745000
1!
1L
1o
1p
#750000
0!
0%
1&
0(
0L
0S
1Q
0P
0j
1i
0g
0o
0p
#755000
1!
1L
1o
1p
#760000
0!
0L
0o
0p
#765000
1!
1L
1o
1p
#770000
0!
0L
0o
0p
#775000
1!
1%
1"
0#
1L
1P
0N
1M
1m
0l
1j
1o
1p
#780000
0!
0L
0o
0p
#785000
1!
1L
1o
1p
#790000
0!
0L
0o
0p
#795000
1!
1L
1o
1p
#800000
0!
0"
1#
0&
1(
1'
1$
0L
1S
1R
0Q
1O
1N
0M
0m
1l
1k
0i
1h
1g
0o
0p
#805000
1!
1L
1o
1p
#810000
0!
0L
0o
0p
#815000
1!
1L
1o
1p
#820000
0!
0L
0o
0p
#825000
1!
1&
0$
0%
1L
1Q
0P
0O
0k
0j
1i
1o
1p
#830000
0!
0L
0o
0p
#835000
1!
1L
1o
1p
#840000
0!
0L
0o
0p
#845000
1!
1L
1o
1p
#850000
0!
1"
0'
1)
0L
1T
0R
1M
1m
0h
1f
0o
0p
#855000
1!
1L
1o
1p
#860000
0!
0L
0o
0p
#865000
1!
1L
1o
1p
#870000
0!
0L
0o
0p
#875000
1!
0"
0&
1$
0(
1L
0S
0Q
1O
0M
0m
1k
0i
0g
1o
1p
#880000
0!
0L
0o
0p
#885000
1!
1L
1o
1p
#890000
0!
0L
0o
0p
#895000
1!
1L
1o
1p
#900000
0!
1&
1(
1'
0L
1S
1R
1Q
1i
1h
1g
0o
0p
#905000
1!
1L
1o
1p
#910000
0!
0L
0o
0p
#915000
1!
1L
1o
1p
#920000
0!
0L
0o
0p
#925000
1!
0&
1"
1%
0#
1L
0Q
1P
0N
1M
1m
0l
1j
0i
1o
1p
#930000
0!
0L
0o
0p
#935000
1!
1L
1o
1p
#940000
0!
0L
0o
0p
#945000
1!
1L
1o
1p
#950000
0!
0"
1#
0)
0L
0T
1N
0M
0m
1l
0f
0o
0p
#955000
1!
1L
1o
1p
#960000
0!
0L
0o
0p
#965000
1!
1L
1o
1p
#970000
0!
0L
0o
0p
#975000
1!
1"
0(
0'
1L
0S
0R
1M
1m
0h
0g
1o
1p
#980000
0!
0L
0o
0p
#985000
1!
1L
1o
1p
#990000
0!
0L
0o
0p
#995000
1!
1L
1o
1p
